@startuml component

title Component Diagram
() "POST /login" as IUser
() "POST /graphql" as IFilms

[client] .down.> () IUser
[client] .up.> () IFilms

IUser - [users]
IFilms - [films]

database database
[films] .> database: TCP/IP

@enduml